{
  "type": "service_account",
  "project_id": "pumuky-9d8f2",
  "private_key_id": "d2927c3288d48b529149248074d52949b0ca24d4",
  "private_key": "-----BEGIN PRIVATE KEY-----\nMIIEvQIBADANBgkqhkiG9w0BAQEFAASCBKcwggSjAgEAAoIBAQC7k9RIJti8VtIw\n+U7L+N8nA2h8NTwam8uBHWK+9NQWHbG/kRic+XcNJ2+DKMaqKdsx3Q1kmPpmnPNm\nyVle0CbTgWh2hO3x76bdRLegIJN2OyWA/tXQ6ULiOP3AA01+t2wg8aDoQsGd960k\nWdv9Nzv8r58fQR37SJ/X9H5V3a6gypQK0SjiRF9ye1mGzVNOPVeTd8hHbvGqNGD2\nUanTorud7Q0MHq0vn+HuRy9WsYcUi3vqRnXUBjmxQPCfKP7CvwWtjfLcicp6mzKy\num66rOCWIVvmE1QdjQlopogDLKeMP+8VFqORyn3zm8LnbjqpXAhSV7xDuzBvSjzS\n06GTMekjAgMBAAECggEAK2XDzt+h9E0X+zmq59kP8+w/b8E3Qya5Wgls76YgLW+4\nUIxmx+aViycNDyjPcc4WRv6QGy6jfDsiuyypbxy0ZunBO+58SKW8EuRToYn34/pC\nLoqG+HsHPOSXnKWG9+LC8wpEQogzWHNVjRv3ICn3yHnvVCFSKPF//cw0sHQF83AV\nhSl96B5GvqYniqlsS+6X3Xl3bIw7fqxuBt9PWjeLMPcGWxQncMUP218CY/Bs+JvG\np6FJzhy+xEjfWvu5Tv0xEgVQ2FSksRvyFz2UIDRi7Q5stLUzBSBOKGqUsviU+LDI\nUjyY6IkVYuFXx7BEtalwHpRXmr7CUWhG0sVE08GCoQKBgQDieNojyFBEJNpIESS8\nzCnQ3zkH+Q9GjJ6OyLoPK6TddIY4F4yy6579lAArq6x5TEh69vjGjKDeV+NtYb2c\nuyrBHgpZ9EEJlpVBZqHLruMS5hMKyTIlW1tlTQ9w1eMwAy46gBDAj6RJyLJBi9qV\n98BlzCrJM9pxhHRg42ILOSDYIQKBgQDUCMJD9S+h9f7nqJSfot/1SqPaVQxwcAnR\nRzUmsI2xlHu4WBU7S3L9hN5y5AOT+UvjeRMOko/DLwbjXrrTFGTZSTqYHIF/2ad9\nzydPpwJJL1hZAx3ZwHU0fnLy6wwYbtx80rwI5K/tCXYnGuTsaKJD8w9BmpJlR1Ta\n2HR0teRIwwKBgDcDhHoMvvLOwPegsnvqXH4Qu5nkNoG8xweIWyo0P+hL1g7qKZON\nCSIwQZpaKZuNnE3CkMwqfSmF0AlSJO1dyhT/ZyRS4TmjCr7IX6VK5n5AxX9pQHUy\nrBD/lzChxH51R1WOpoMgYZhK2IJzprWnaWVRI1Oc9QN+WYbvtXFkf0YBAoGAA8Jr\n/1x3jb2Y2W6pw/LVWboLEbH0WIIECoviq17yBDYHw4r8RWLfFROoBg146sS+zbe1\n2MpMdj99NcbWNSvlZdzghxXqTeQEDj0AC2+AoN+QB3QAsX2yFk4vp5L3Ue+VRTlP\nUDEN1XwXdjYJ3Q814VKL8LPW6KjNHlw8JF2dQJUCgYEAlrdh9/mtOB8NW5iMMrYc\nmmX5h8ycRIJkQXYt5Ir6SbXhow7gXlUQmKGBOrr5dAIjdlUSRDx+/Et/Yu69K4/U\nSUKXMDP5YLT98aIPTpqyPi4668Xeaq654yOncLOR7MZNaDMiSHGR3RZe+zFO2gSO\nYdqOGvu1CgH4XMyNERsN99A=\n-----END PRIVATE KEY-----\n",
  "client_email": "firebase-adminsdk-bzbt0@pumuky-9d8f2.iam.gserviceaccount.com",
  "client_id": "115468108977208860617",
  "auth_uri": "https://accounts.google.com/o/oauth2/auth",
  "token_uri": "https://oauth2.googleapis.com/token",
  "auth_provider_x509_cert_url": "https://www.googleapis.com/oauth2/v1/certs",
  "client_x509_cert_url": "https://www.googleapis.com/robot/v1/metadata/x509/firebase-adminsdk-bzbt0%40pumuky-9d8f2.iam.gserviceaccount.com"
}
